{
    "name": "Cpu",
    "fields": [
        {
            "fieldName": "name",
            "fieldType": "String"
        },
        {
            "fieldName": "frequency",
            "fieldType": "Double"
        }
    ],
    "relationships": [
        {
            "relationshipType": "one-to-many",
            "otherEntityName": "product",
            "otherEntityRelationshipName": "cpu",
            "relationshipName": "product",
            "otherEntityField": "id",
            "ownerSide": true
        }
    ],
    "changelogDate": "20191213143432",
    "entityTableName": "cpu",
    "dto": "mapstruct",
    "pagination": "pagination",
    "service": "serviceImpl",
    "jpaMetamodelFiltering": false,
    "fluentMethods": true,
    "clientRootFolder": "",
    "applications": "*",
    "angularJSSuffix": "ecom"
}
